---
ROCK_attributes:
  -
    groupID: 1
    tid: 2
    year: 2021
    month: 03
---

A mai ebédem 🥰
---<<post_delimiter>>---
media1.giphy.commedia1.giphy.com11
A krumplit nem kellett volna
media2.giphy.commedia2.giphy.com5
